{
  "createdBy": "Duel",
  "description": "Show your Duel galleries with a widget",
  "developerID": "4-180110170530",
  "extensionID": "[Insert Extension ID here]",
  "name": "Duel widget",
  "timeCreated": "2019-04-17",
  "version": 2
}